%YAML 1.1
%TAG !u! tag:unity3d.com,2011:
--- !u!1045 &1
EditorBuildSettings:
  m_ObjectHideFlags: 0
  serializedVersion: 2
  m_Scenes:
  - enabled: 1
    path: Assets/Scenes/MainMenu.unity
    guid: daf30d7338facf44da863dfdbad1afcd
  - enabled: 1
    path: Assets/Scenes/OfflineScene.unity
    guid: e3d3806d29b10174fa9d7ef439eff83c
  - enabled: 1
    path: Assets/Scenes/OnlineScene.unity
    guid: 7b034c05c15f0cb45ac279c4226af1ea
  m_configObjects: {}
